{
    "appId": "io.ionic.smartguard",
    "appName": "Smartguard",
    "bundledWebRuntime": false,
    "npmClient": "npm",
    "webDir": "dist",
    "plugins": {
        "SplashScreen": {
            "launchShowDuration": 0
        }
    },
    "cordova": {}
}